{
  "$schema": "http://json-schema.org/draft-04/schema#",
  "type": "array",
  "items": {
    "type": "object",
    "properties": {
      "id": {
        "type": "integer"
      },
      "parent": {
        "type": "integer"
      },
      "sort_id": {
        "type": "integer"
      },
      "title": {
        "type": "string"
      },
      "description": {
        "type": "string"
      }
    }
  }
}