{
  "$schema": "http://json-schema.org/draft-04/schema#",
  "type": "object",
  "properties": {
    "name": {
      "type": "string"
    },
    "urgency": {
        "enum":[
            "low",
            "middle",
            "hi"
        ]
    },
    "type": {
        "enum": [
            "subscriber",
            "disposable"
        ]
    },
    "project_id": {
      "type": "integer"
    },
    "description": {
      "type": "string"
    },
    "attach_idss": {
      "type": "array",
      "items": {
        "type": "integer"
      }
    },
    "price": {
      "type": "integer"
    },
    "date_start": {
      "type": "date-time"
    },
    "date_end": {
      "type": "date-time"
    },
    "access_ids": {
      "type": "array",
      "items": {
        "type": "integer"
      }
    }
  },
  "required": [
    "name",
     "type",
    "urgency",
    "project_id",
    "description",
    "price",
    "date_start",
    "date_end"
  ]
}
