{
  "$schema": "http://json-schema.org/draft-04/schema#",
  "type": "array",
  "items": {
    "type": "object",
    "properties": {
      "deadline": {
        "type": "string"
      },
      "title": {
        "type": "string"
      },
      "status": {
        "type": "string"
      },
      "debts": {
        "type": "number"
      },
      "price": {
        "type": "number"
      }
    }
  }
}