[
  {
    "id": "1",
    "name": "*",
    "description": "Разрешено абсолютно все"
  },
  {
    "id": "2",
    "name": "user/auth(:all)",
    "description": "Функция авторизации"
  },
  {
    "id": "4",
    "name": "welcome/(:all)",
    "description": "Главная страница"
  }
]
