{
    "id": 1,
    "email": "root@ya.ru",
    "role": "developer",
    "full_name": "ФИО",
    "gender": "",
    "is_moderate": 0,
    "is_training": 0,
    "is_banned": 0,
    "ban_reason": "",
    "newpass": "",
    "newpass_key": "",
    "newpass_at": null,
    "last_ip": "127.0.0.1",
    "last_login_at": "2017-03-07 14:34:59",
    "created_at": "2017-03-07 14:34:59",
    "updated_at": null,
    "property": [
        {
            "id": 5,
            "hash": "",
            "parent_type": "user",
            "parent_id": 1,
            "name": "skype",
            "data": "john-cristian",
            "is_private": 0,
            "is_deleted": 0
        },
        {
            "id": 6,
            "hash": "",
            "parent_type": "user",
            "parent_id": 1,
            "name": "phone",
            "data": "+790511122233",
            "is_private": 0,
            "is_deleted": 0
        }
    ],
    "category": [
        {
            "title": "Битрикс",
            "id": 1
        },
        {
            "title": "1С Предприятие",
            "id": 2
        }
    ],
    "division": {
        "id": 1,
        "name": "подразделение 1"
    }
}