{
  "weekday": {
    "monday": {
      "time_from": "08:00",
      "time_to": "19:00"
    },
    "tuesday": {
      "time_from": "08:00",
      "time_to": "19:00"
    },
    "wednesday": {
      "time_from": "08:00",
      "time_to": "19:00"
    },
    "thursday": {
      "time_from": "08:00",
      "time_to": "19:00"
    },
    "friday": {
      "time_from": "08:00",
      "time_to": "19:00"
    },
    "saturday": {
      "time_from": "08:00",
      "time_to": "19:00"
    },
    "sunday": {
      "time_from": "08:00",
      "time_to": "20:00"
    }
  },
  "time_from": "08:00",
  "time_to": "19:00",
  "holidays": true
}