{
  "id": 2,
  "text": "Текст сообщения",
  "from": [
    {
      "id": 2,
      "name": "Виктор",
      "pname": "Викторович",
      "family": "Викторов"
    }
  ],
  "to": [
    {
      "id": 3,
      "name": "Николай",
      "pname": "Николаевич",
      "family": "Николаев"
    }
  ],
  "attached_files_url": [
    {
      "url": "http://example.com/file.jpg"
    },
    {
      "url": "http://example.com/file.jpg"
    },
    {
      "url": "http://example.com/file.jpg"
    }
  ],
  "readed_at": "2017-03-07 14:34:59",
  "created_at": "2017-03-07 14:34:59",
  "updated_at": "2017-03-07 14:34:59"
}