{
  "$schema": "http://json-schema.org/draft-04/schema#",
  "type": "object",
  "properties": {
    "report_id": {
      "type": "string"
    },
    "task_id": {
      "type": "string"
    },
    "body": {
      "type": "string"
    },
    "attached_files_url": {
      "type": "array",
      "items": {
        "type": "object",
        "properties": {
          "url": {
            "type": "string"
          }
        }
      }
    }
  }
}