[
  {
    "id": 1,
    "type": "disposable",
    "name": "site.ru",
    "description": "Другое описание проекта",
    "date_start": "2017-03-07 14:34:59",
    "date_end": "2017-03-07 14:34:59",
    "time_limit": null,
    "payment": 0,
    "created_at": "2017-03-07 14:34:59",
    "updated_at": "2017-03-07 14:34:59",
    "attach": [
      {
        "id": 1,
        "user_id": 1,
        "name": "vadim.txt",
        "size": 1,
        "ext": "txt",
        "hash": "b0460072",
        "is_private": 0,
        "parent_type": "project",
        "parent_id": 1,
        "path": "/upload/2017/b0460072_1.txt",
        "created_at": "2017-03-23 13:58:00",
        "updated_at": "2017-04-04 11:47:48"
      },
      {
        "id": 2,
        "user_id": 1,
        "name": "vadim.txt",
        "size": 1,
        "ext": "txt",
        "hash": "6c300461",
        "is_private": 0,
        "parent_type": "project",
        "parent_id": 1,
        "path": "/upload/2017/6c300461_1.txt",
        "created_at": "2017-04-03 17:16:54",
        "updated_at": "2017-04-04 11:47:48"
      }
    ],
    "share": [
      {
        "id": 1,
        "role": "developer",
        "full_name": "название карточки лида"
      },
      {
        "id": 2,
        "role": "pm",
        "full_name": "Миша Лермонтов"
      }
      ]
  },
  {
    "id": 2,
    "type": "disposable",
    "name": "mail.ru",
    "description": "",
    "date_start": "2017-03-07 14:34:59",
    "date_end": "2017-03-07 14:34:59",
    "time_limit": null,
    "payment": 0,
    "created_at": "2017-03-07 14:34:59",
    "updated_at": "2017-03-07 14:34:59",
    "attach": [
      {
        "id": 1,
        "user_id": 1,
        "name": "vadim.txt",
        "size": 1,
        "ext": "txt",
        "hash": "b0460072",
        "is_private": 0,
        "parent_type": "project",
        "parent_id": 1,
        "path": "/upload/2017/b0460072_1.txt",
        "created_at": "2017-03-23 13:58:00",
        "updated_at": "2017-04-04 11:47:48"
      },
      {
        "id": 2,
        "user_id": 1,
        "name": "vadim.txt",
        "size": 1,
        "ext": "txt",
        "hash": "6c300461",
        "is_private": 0,
        "parent_type": "project",
        "parent_id": 1,
        "path": "/upload/2017/6c300461_1.txt",
        "created_at": "2017-04-03 17:16:54",
        "updated_at": "2017-04-04 11:47:48"
      }
    ],
    "share": [
      {
        "id": 1,
        "role": "developer",
        "full_name": "название карточки лида"
      },
      {
        "id": 2,
        "role": "pm",
        "full_name": "Миша Лермонтов"
      }
    ]
  }
]