{
  "$schema": "http://json-schema.org/draft-04/schema#",
  "definitions": {},
  "id": "http://example.com/example.json",
  "properties": {
    "attach_ids": {
      "items": {
        "type": "integer"
      },
      "type": "array"
    },
    "date_end": {
      "type": "string"
    },
    "date_start": {
      "type": "string"
    },
    "description": {
      "type": "string"
    },
    "name": {
      "type": "string"
    },
    "payment": {
      "type": "string"
    },
    "share_ids": {
      "items": {
        "type": "integer"
      },
      "type": "array"
    },
    "time_limit": {
      "type": "string"
    },
    "type": {
      "type": "string"
    }
  },
  "type": "object"
}