{
  "$schema": "http://json-schema.org/draft-04/schema#",
  "type": "object",
  "properties": {
    "start": {
      "type": "date-time"
    },
    "end": {
      "type": "date-time"
    },
    "status": {
      "enum": [
        "launched",
        "paused"
      ]
    }
  },
  "required": [
    "start",
    "end",
    "status"
  ]
}
