{
  "$schema": "http://json-schema.org/draft-04/schema#",
  "type": "array",
  "items": {
    "type": "object",
    "properties": {
      "id": {
        "type": "integer"
      },
      "type_name": {
        "type": "string"
      },
      "title": {
        "type": "string"
      },
      "text": {
        "type": "string"
      },
      "data": {
        "type": "string"
      },
      "user_id": {
        "type": "integer"
      },
      "is_read": {
        "type": "integer"
      },
      "is_email_sended": {
        "type": "integer"
      },
      "created_at": {
        "type": "date-time"
      }
    }
  }
}
