{
  "tasks": [
    {
      "task_id": 2,
      "hours": 1,
      "minutes": 30,
      "body": "Пркрепил pdf с отчетом",
      "attach_ids": [
        1
      ]
    },
    {
      "task_id": 3,
      "hours": 2,
      "minutes": 10,
      "body": "Пркрепил pdf с отчетом",
      "attach_ids": [
        2
      ]
    },
    {
      "task_id": 4,
      "hours": 3,
      "minutes": 20,
      "body": "Пркрепил pdf с отчетом",
      "attach_ids": [
        3
      ]
    }
  ]
}
