{
  "id": 1,
  "task_id": 1,
  "body": "Причина приостановки задачи 1",
  "last_status": "valuation",
  "status": "unsolved",
  "created_at": "2017-05-04 00:52:20",
  "updated_at": "2017-05-04 00:52:20",
  "attach": [
    {
      "id": 5,
      "user_id": 1,
      "name": "vadim.txt",
      "size": 2,
      "ext": "txt",
      "hash": "4e79d0ec",
      "is_private": 0,
      "parent_type": "task_suspense",
      "parent_id": 1,
      "path": "/upload/2017/4e79d0ec_1.txt",
      "created_at": "2017-04-20 13:45:45",
      "updated_at": "2017-05-03 13:30:32"
    }
  ],
  "reason": [
    {
      "suspense_id": 1,
      "reason": "cant_do"
    },
    {
      "suspense_id": 1,
      "reason": "problem_server"
    }
  ]
}
