{
  "$schema": "http://json-schema.org/draft-04/schema#",
  "definitions": {},
  "id": "http://example.com/example.json",
  "properties": {
    "account": {
      "type": "string"
    },
    "amount": {
      "type": "integer"
    },
    "attach_ids": {
      "items": {
        "type": "integer"
      },
      "type": "array"
    },
    "date_payment": {
      "type": "string"
    },
    "date_payment_full": {
      "type": "string"
    },
    "description": {
      "type": "string"
    },
    "is_auto": {
      "type": "string"
    },
    "is_prepayment": {
      "type": "string"
    },
    "payment_property_id": {
      "type": "integer"
    },
    "payment_system": {
      "type": "string"
    },
    "reason": {
      "type": "string"
    },
    "system": {
      "type": "string"
    },
    "task_id": {
      "type": "integer"
    },
    "user_id": {
      "type": "integer"
    }
  },
  "type": "object"
}