{
  "$schema": "http://json-schema.org/draft-04/schema#",
  "type": "object",
  "properties": {
    "name": {
      "type": "string"
    },
    "description": {
      "type": "string"
    },
    "tags": {
      "type": "array",
      "items": {
        "type": "string"
      }
    },
    "passage_time": {
      "type": "integer"
    },
    "attempts": {
      "type": "integer"
    },
    "questions": {
      "type": "array",
      "items": {
        "type": "object",
        "properties": {
          "name": {
            "type": "string"
          },
          "description": {
            "type": "string"
          },
          "type_answer": {
            "type": "string"
          },
          "possible_answers": {
            "type": "array",
            "items": {
              "type": "object",
              "properties": {
                "id": {
                  "type": "integer"
                },
                "value": {
                  "type": "string"
                }
              },
              "required": [
                "id",
                "value"
              ]
            }
          },
          "answer": {
            "type": "array",
            "items": {
              "type": "integer"
            }
          }
        },
        "required": [
          "name",
          "description",
          "type_answer",
          "possible_answers",
          "answer"
        ]
      }
    }
  },
  "required": [
    "name",
    "description",
    "tags",
    "passage_time",
    "attempts",
    "questions"
  ]
}
