{
    "title":"Сколько тебе лет",
    "description":"Расширенный вопрос сколько тебе лет,c листингом кода",
    "type_answer": "single",
    "points": 10,
    "possible_answers":[
        {
            "id":1,
            "value": "15 лет"
        },
        {
            "id":2,
            "value": "15 лет"
        }
    ],
    "answer": 1
}
