{
    "title":"Сколько тебе лет",
    "description":"Расширенный вопрос сколько тебе лет,c листингом кода",
    "variables":[
        {
            "title": "15 лет"
        },
        {
            "title": "15 лет"
        }
    ]
}
