[
    {
        "title": "Знание PHP",
        "description": "Описание теста",
        "tags": ["php", "laguage-php"],
        "passage_time":321354,
        "total_points": 30,
        "attempts": 4,
        "questions": [
            {
                "title":"Сколько тебе лет",
                "description":"Расширенный вопрос сколько тебе лет,c листингом кода",
                "type_answer": "single",
                "points": 10,
                "possible_answers":[
                    {
                        "id":1,
                        "value": "15 лет"
                    },
                    {
                        "id":2,
                        "value": "15 лет"
                    }
                ],
                "answer": 1
            },
            {
                "title":"Сколько ты ешь в день",
                "description":"Расширенный вопрос сколько тебе лет,c листингом кода",
                "type_answer": "multiple",
                "points": 20,
                "possible_answers":[
                    {
                        "id":1,
                        "value": "1"
                    },
                    {
                        "id":2,
                        "value": "3"
                    },
                    {
                        "id":3,
                        "value": "4"
                    },
                    {
                        "id":4,
                        "value": "5"
                    }
                ],
                "answer": [1,2,3]
            }
        ]
    }
]
