{
  "mc": {
    "name": "mc",
    "value": "Мобильный платеж"
  },
  "sms": {
    "name": "sms",
    "value": "SMS-оплата"
  },
  "card": {
    "name": "card",
    "value": "Пластиковые карты"
  },
  "webmoney": {
    "name": "webmoney",
    "value": "WebMoney"
  },
  "yandex": {
    "name": "yandex",
    "value": "Яндекс.Деньги"
  },
  "qiwi": {
    "name": "qiwi",
    "value": "Qiwi"
  },
  "paypal": {
    "name": "paypal",
    "value": "PayPal"
  },
  "liqpay": {
    "name": "liqpay",
    "value": "LiqPay"
  },
  "alfaClick": {
    "name": "alfaClick",
    "value": "Альфа-Клик"
  }
}