  {
    "report_id": "2",
    "parent_id": "1",
    "parent_type": "task",
    "body": "Задача была выполнена, отчет прилагаю в pdf и doc",
    "attached_files_url": [
      {
        "url": "http://example.com/file1.jpg"
      },
      {
        "url": "http://example.com/file2.jpg"
      }
    ]
  }